\relax 
\@writefile{toc}{\contentsline {section}{\numberline {1}Introduction}{1}}
\@writefile{toc}{\contentsline {section}{\numberline {2}Qt Libraries, compiling from source code}{2}}
\@writefile{toc}{\contentsline {section}{\numberline {3}QLearning algorithm}{2}}
\@writefile{toc}{\contentsline {subsection}{\numberline {3.1}Some notes}{4}}
\@writefile{toc}{\contentsline {subsection}{\numberline {3.2}Running QLearning}{4}}
\@writefile{toc}{\contentsline {subsection}{\numberline {3.3}QLearning file .qlf }{4}}
\@writefile{toc}{\contentsline {section}{\numberline {4}The Scenario}{4}}
\@writefile{lof}{\contentsline {figure}{\numberline {1}{\ignorespaces Original map}}{5}}
\@writefile{lof}{\contentsline {figure}{\numberline {2}{\ignorespaces Grid Map generated from the original image}}{6}}
\@writefile{toc}{\contentsline {section}{\numberline {5}Experiments}{6}}
\@writefile{lof}{\contentsline {figure}{\numberline {3}{\ignorespaces Results of first experiment}}{7}}
\@writefile{lof}{\contentsline {figure}{\numberline {4}{\ignorespaces Results of second experiment}}{8}}
\@writefile{lof}{\contentsline {figure}{\numberline {5}{\ignorespaces Results of third experiment}}{9}}
\@writefile{lof}{\contentsline {figure}{\numberline {6}{\ignorespaces Results of fourth experiment}}{10}}
\@writefile{lof}{\contentsline {figure}{\numberline {7}{\ignorespaces Results of fifth experiment}}{10}}
\@writefile{toc}{\contentsline {section}{\numberline {6}Conclusion}{11}}
